solid csg.js
facet normal 0 0 -1
outer loop
vertex -6.052556100000004 47.415631299999994 0
vertex -5.958977310994413 47.89192363562541 0
vertex -5.789811580272996 48.34688578296677 0
endloop
endfacet
facet normal 0 0 -1
outer loop
vertex -6.052556100000004 47.415631299999994 0
vertex -5.789811580272996 48.34688578296677 0
vertex -5.549489383592629 48.76861180984519 0
endloop
endfacet
facet normal 0 0 -1
outer loop
vertex -6.052556100000004 47.415631299999994 0
vertex -5.549489383592629 48.76861180984519 0
vertex -5.2443020249508265 49.14606150992345 0
endloop
endfacet
facet normal 0 0 -1
outer loop
vertex -6.052556100000004 47.415631299999994 0
vertex -5.2443020249508265 49.14606150992345 0
vertex -4.8822388889152535 49.469353770096845 0
endloop
endfacet
facet normal 0 0 -1
outer loop
vertex -6.052556100000004 47.415631299999994 0
vertex -4.8822388889152535 49.469353770096845 0
vertex -4.472778289543314 49.73002524442021 0
endloop
endfacet
facet normal 0 0 -1
outer loop
vertex -6.052556100000004 47.415631299999994 0
vertex -4.472778289543314 49.73002524442021 0
vertex -4.026639341179234 49.92125191284416 0
endloop
endfacet
facet normal 0 0 -1
outer loop
vertex -6.052556100000004 47.415631299999994 0
vertex -4.026639341179234 49.92125191284416 0
vertex -3.555501346809038 50.038027724657994 0
endloop
endfacet
facet normal 0 0 -1
outer loop
vertex -6.052556100000004 47.415631299999994 0
vertex -3.555501346809038 50.038027724657994 0
vertex -3.071698049999952 50.07729565 0
endloop
endfacet
facet normal 0 0 -1
outer loop
vertex -6.052556100000004 47.415631299999994 0
vertex -3.071698049999952 50.07729565 0
vertex 244.69777959999996 50.0772991 0
endloop
endfacet
facet normal 0 0 -1
outer loop
vertex -6.052556100000004 47.415631299999994 0
vertex 244.69777959999996 50.0772991 0
vertex 245.18158309680905 50.03802662465799 0
endloop
endfacet
facet normal 0 0 -1
outer loop
vertex -6.052556100000004 47.415631299999994 0
vertex 245.18158309680905 50.03802662465799 0
vertex 245.6527210911792 49.92125081284417 0
endloop
endfacet
facet normal 0 0 -1
outer loop
vertex -6.052556100000004 47.415631299999994 0
vertex 245.6527210911792 49.92125081284417 0
vertex 246.09886003954318 49.73002414442025 0
endloop
endfacet
facet normal 0 0 -1
outer loop
vertex -6.052556100000004 47.415631299999994 0
vertex 246.09886003954318 49.73002414442025 0
vertex 246.50832063891528 49.46935267009678 0
endloop
endfacet
facet normal 0 0 -1
outer loop
vertex -6.052556100000004 47.415631299999994 0
vertex 246.50832063891528 49.46935267009678 0
vertex 246.87038377495077 49.14606040992347 0
endloop
endfacet
facet normal 0 0 -1
outer loop
vertex -6.052556100000004 47.415631299999994 0
vertex 246.87038377495077 49.14606040992347 0
vertex 247.17557113359254 48.76861070984524 0
endloop
endfacet
facet normal 0 0 -1
outer loop
vertex -6.052556100000004 47.415631299999994 0
vertex 247.17557113359254 48.76861070984524 0
vertex 247.415893330273 48.346884682966675 0
endloop
endfacet
facet normal 0 0 -1
outer loop
vertex -6.052556100000004 47.415631299999994 0
vertex 247.415893330273 48.346884682966675 0
vertex 247.58505906099435 47.89192253562551 0
endloop
endfacet
facet normal 0 0 -1
outer loop
vertex -6.052556100000004 47.415631299999994 0
vertex 247.58505906099435 47.89192253562551 0
vertex 247.6786398 47.4156345499996 0
endloop
endfacet
facet normal 0 0 -1
outer loop
vertex -6.052556100000004 47.415631299999994 0
vertex 247.6786398 47.4156345499996 0
vertex 253.713301 -5.752498100000126 0
endloop
endfacet
facet normal 0 0 -1
outer loop
vertex -6.052556100000004 47.415631299999994 0
vertex 253.713301 -5.752498100000126 0
vertex 253.72992175484075 -6.213708875417727 0
endloop
endfacet
facet normal 0 0 -1
outer loop
vertex -6.052556100000004 47.415631299999994 0
vertex 253.72992175484075 -6.213708875417727 0
vertex 253.6756056681662 -6.672010666711073 0
endloop
endfacet
facet normal 0 0 -1
outer loop
vertex -6.052556100000004 47.415631299999994 0
vertex 253.6756056681662 -6.672010666711073 0
vertex 253.55163766498526 -7.116558418208933 0
endloop
endfacet
facet normal 0 0 -1
outer loop
vertex -6.052556100000004 47.415631299999994 0
vertex 253.55163766498526 -7.116558418208933 0
vertex 253.36095152755905 -7.5368316224081235 0
endloop
endfacet
facet normal 0 0 -1
outer loop
vertex -6.052556100000004 47.415631299999994 0
vertex 253.36095152755905 -7.5368316224081235 0
vertex 253.1080599655633 -7.922884244527999 0
endloop
endfacet
facet normal 0 0 -1
outer loop
vertex -6.052556100000004 47.415631299999994 0
vertex 253.1080599655633 -7.922884244527999 0
vertex 252.79894781992107 -8.265580101798998 0
endloop
endfacet
facet normal 0 0 -1
outer loop
vertex -6.052556100000004 47.415631299999994 0
vertex 252.79894781992107 -8.265580101798998 0
vertex 252.4409304277056 -8.556809077084225 0
endloop
endfacet
facet normal 0 0 -1
outer loop
vertex -6.052556100000004 47.415631299999994 0
vertex 252.4409304277056 -8.556809077084225 0
vertex 252.04248049999973 -8.789679050000117 0
endloop
endfacet
facet normal 0 0 -1
outer loop
vertex -6.052556100000004 47.415631299999994 0
vertex 252.04248049999973 -8.789679050000117 0
vertex 188.0637735999999 -39.84532780000003 0
endloop
endfacet
facet normal 0 0 -1
outer loop
vertex -6.052556100000004 47.415631299999994 0
vertex 188.0637735999999 -39.84532780000003 0
vertex 187.8730672785905 -39.9298344248413 0
endloop
endfacet
facet normal 0 0 -1
outer loop
vertex -6.052556100000004 47.415631299999994 0
vertex 187.8730672785905 -39.9298344248413 0
vertex 187.67695123945794 -40.000888928498426 0
endloop
endfacet
facet normal 0 0 -1
outer loop
vertex -6.052556100000004 47.415631299999994 0
vertex 187.67695123945794 -40.000888928498426 0
vertex 187.4763718 -40.0581439 0
endloop
endfacet
facet normal 0 0 -1
outer loop
vertex -6.052556100000004 47.415631299999994 0
vertex 187.4763718 -40.0581439 0
vertex 131.83737070000043 -53.8669634999999 0
endloop
endfacet
facet normal 0 0 -1
outer loop
vertex -6.052556100000004 47.415631299999994 0
vertex 131.83737070000043 -53.8669634999999 0
vertex 131.59915025514866 -53.91593070044268 0
endloop
endfacet
facet normal 0 0 -1
outer loop
vertex -6.052556100000004 47.415631299999994 0
vertex 131.59915025514866 -53.91593070044268 0
vertex 131.35774139849647 -53.945442017829826 0
endloop
endfacet
facet normal 0 0 -1
outer loop
vertex -6.052556100000004 47.415631299999994 0
vertex 131.35774139849647 -53.945442017829826 0
vertex 131.11473534999982 -53.955301750000004 0
endloop
endfacet
facet normal 0 0 -1
outer loop
vertex -6.052556100000004 47.415631299999994 0
vertex 131.11473534999982 -53.955301750000004 0
vertex 110.5113486 -53.95529750000001 0
endloop
endfacet
facet normal 0 0 -1
outer loop
vertex -6.052556100000004 47.415631299999994 0
vertex 110.5113486 -53.95529750000001 0
vertex 110.26834325150377 -53.94543901782985 0
endloop
endfacet
facet normal 0 0 -1
outer loop
vertex -6.052556100000004 47.415631299999994 0
vertex 110.26834325150377 -53.94543901782985 0
vertex 110.02693439485111 -53.91592770044264 0
endloop
endfacet
facet normal 0 0 -1
outer loop
vertex -6.052556100000004 47.415631299999994 0
vertex 110.02693439485111 -53.91592770044264 0
vertex 109.78870929999995 -53.866958749999995 0
endloop
endfacet
facet normal 0 0 -1
outer loop
vertex -6.052556100000004 47.415631299999994 0
vertex 109.78870929999995 -53.866958749999995 0
vertex 54.14971439999984 -40.058142299999965 0
endloop
endfacet
facet normal 0 0 -1
outer loop
vertex -6.052556100000004 47.415631299999994 0
vertex 54.14971439999984 -40.058142299999965 0
vertex 53.94913276054207 -40.00089117849843 0
endloop
endfacet
facet normal 0 0 -1
outer loop
vertex -6.052556100000004 47.415631299999994 0
vertex 53.94913276054207 -40.00089117849843 0
vertex 53.75301672140931 -39.92983667484124 0
endloop
endfacet
facet normal 0 0 -1
outer loop
vertex -6.052556100000004 47.415631299999994 0
vertex 53.75301672140931 -39.92983667484124 0
vertex 53.56231220000002 -39.84532615000001 0
endloop
endfacet
facet normal 0 0 -1
outer loop
vertex -6.052556100000004 47.415631299999994 0
vertex 53.56231220000002 -39.84532615000001 0
vertex -10.41639419999997 -8.789681700000006 0
endloop
endfacet
facet normal 0 0 -1
outer loop
vertex -6.052556100000004 47.415631299999994 0
vertex -10.41639419999997 -8.789681700000006 0
vertex -10.814847027705568 -8.556810877084253 0
endloop
endfacet
facet normal 0 0 -1
outer loop
vertex -6.052556100000004 47.415631299999994 0
vertex -10.814847027705568 -8.556810877084253 0
vertex -11.17286441992097 -8.265581901799074 0
endloop
endfacet
facet normal 0 0 -1
outer loop
vertex -6.052556100000004 47.415631299999994 0
vertex -11.17286441992097 -8.265581901799074 0
vertex -11.4819765655633 -7.922886044528014 0
endloop
endfacet
facet normal 0 0 -1
outer loop
vertex -6.052556100000004 47.415631299999994 0
vertex -11.4819765655633 -7.922886044528014 0
vertex -11.734868127559096 -7.5368334224080575 0
endloop
endfacet
facet normal 0 0 -1
outer loop
vertex -6.052556100000004 47.415631299999994 0
vertex -11.734868127559096 -7.5368334224080575 0
vertex -11.925554264985308 -7.116560218208884 0
endloop
endfacet
facet normal 0 0 -1
outer loop
vertex -6.052556100000004 47.415631299999994 0
vertex -11.925554264985308 -7.116560218208884 0
vertex -12.049522268166257 -6.672012466711147 0
endloop
endfacet
facet normal 0 0 -1
outer loop
vertex -6.052556100000004 47.415631299999994 0
vertex -12.049522268166257 -6.672012466711147 0
vertex -12.10383835484076 -6.213710675417779 0
endloop
endfacet
facet normal 0 0 -1
outer loop
vertex -6.052556100000004 47.415631299999994 0
vertex -12.10383835484076 -6.213710675417779 0
vertex -12.08721709999999 -5.752500849999954 0
endloop
endfacet
facet normal 0 0 1
outer loop
vertex -3.071698050000009 50.07729565 1
vertex -3.5555013468089527 50.03802772465801 1
vertex -4.026639341179234 49.921251912844156 1
endloop
endfacet
facet normal 0 0 1
outer loop
vertex -3.071698050000009 50.07729565 1
vertex -4.026639341179234 49.921251912844156 1
vertex -4.472778289543356 49.73002524442018 1
endloop
endfacet
facet normal 0 0 1
outer loop
vertex -3.071698050000009 50.07729565 1
vertex -4.472778289543356 49.73002524442018 1
vertex -4.882238888915225 49.46935377009686 1
endloop
endfacet
facet normal 0 0 1
outer loop
vertex -3.071698050000009 50.07729565 1
vertex -4.882238888915225 49.46935377009686 1
vertex -5.2443020249508265 49.146061509923456 1
endloop
endfacet
facet normal 0 0 1
outer loop
vertex -3.071698050000009 50.07729565 1
vertex -5.2443020249508265 49.146061509923456 1
vertex -5.549489383592629 48.76861180984518 1
endloop
endfacet
facet normal 0 0 1
outer loop
vertex -3.071698050000009 50.07729565 1
vertex -5.549489383592629 48.76861180984518 1
vertex -5.78981158027301 48.346885782966744 1
endloop
endfacet
facet normal 0 0 1
outer loop
vertex -3.071698050000009 50.07729565 1
vertex -5.78981158027301 48.346885782966744 1
vertex -5.958977310994399 47.891923635625425 1
endloop
endfacet
facet normal 0 0 1
outer loop
vertex -3.071698050000009 50.07729565 1
vertex -5.958977310994399 47.891923635625425 1
vertex -6.052556100000004 47.41563129999996 1
endloop
endfacet
facet normal 0 0 1
outer loop
vertex -3.071698050000009 50.07729565 1
vertex -6.052556100000004 47.41563129999996 1
vertex -12.08721709999999 -5.752500849999984 1
endloop
endfacet
facet normal 0 0 1
outer loop
vertex -3.071698050000009 50.07729565 1
vertex -12.08721709999999 -5.752500849999984 1
vertex -12.10383835484076 -6.213710675417776 1
endloop
endfacet
facet normal 0 0 1
outer loop
vertex -3.071698050000009 50.07729565 1
vertex -12.10383835484076 -6.213710675417776 1
vertex -12.049522268166257 -6.672012466711131 1
endloop
endfacet
facet normal 0 0 1
outer loop
vertex -3.071698050000009 50.07729565 1
vertex -12.049522268166257 -6.672012466711131 1
vertex -11.925554264985308 -7.11656021820891 1
endloop
endfacet
facet normal 0 0 1
outer loop
vertex -3.071698050000009 50.07729565 1
vertex -11.925554264985308 -7.11656021820891 1
vertex -11.734868127559096 -7.536833422408044 1
endloop
endfacet
facet normal 0 0 1
outer loop
vertex -3.071698050000009 50.07729565 1
vertex -11.734868127559096 -7.536833422408044 1
vertex -11.481976565563329 -7.922886044528006 1
endloop
endfacet
facet normal 0 0 1
outer loop
vertex -3.071698050000009 50.07729565 1
vertex -11.481976565563329 -7.922886044528006 1
vertex -11.17286441992097 -8.265581901799095 1
endloop
endfacet
facet normal 0 0 1
outer loop
vertex -3.071698050000009 50.07729565 1
vertex -11.17286441992097 -8.265581901799095 1
vertex -10.814847027705596 -8.556810877084246 1
endloop
endfacet
facet normal 0 0 1
outer loop
vertex -3.071698050000009 50.07729565 1
vertex -10.814847027705596 -8.556810877084246 1
vertex -10.4163942 -8.789681699999996 1
endloop
endfacet
facet normal 0 0 1
outer loop
vertex -3.071698050000009 50.07729565 1
vertex -10.4163942 -8.789681699999996 1
vertex 53.56231219999967 -39.845326149999856 1
endloop
endfacet
facet normal 0 0 1
outer loop
vertex -3.071698050000009 50.07729565 1
vertex 53.56231219999967 -39.845326149999856 1
vertex 53.75301672140938 -39.92983667484127 1
endloop
endfacet
facet normal 0 0 1
outer loop
vertex -3.071698050000009 50.07729565 1
vertex 53.75301672140938 -39.92983667484127 1
vertex 53.94913276054197 -40.00089117849839 1
endloop
endfacet
facet normal 0 0 1
outer loop
vertex -3.071698050000009 50.07729565 1
vertex 53.94913276054197 -40.00089117849839 1
vertex 54.14971439999998 -40.05814229999999 1
endloop
endfacet
facet normal 0 0 1
outer loop
vertex -3.071698050000009 50.07729565 1
vertex 54.14971439999998 -40.05814229999999 1
vertex 109.78870930000005 -53.86695875000002 1
endloop
endfacet
facet normal 0 0 1
outer loop
vertex -3.071698050000009 50.07729565 1
vertex 109.78870930000005 -53.86695875000002 1
vertex 110.026934394851 -53.91592770044262 1
endloop
endfacet
facet normal 0 0 1
outer loop
vertex -3.071698050000009 50.07729565 1
vertex 110.026934394851 -53.91592770044262 1
vertex 110.26834325150384 -53.945439017829855 1
endloop
endfacet
facet normal 0 0 1
outer loop
vertex -3.071698050000009 50.07729565 1
vertex 110.26834325150384 -53.945439017829855 1
vertex 110.51134859999992 -53.95529750000001 1
endloop
endfacet
facet normal 0 0 1
outer loop
vertex -3.071698050000009 50.07729565 1
vertex 110.51134859999992 -53.95529750000001 1
vertex 131.11473534999993 -53.955301750000004 1
endloop
endfacet
facet normal 0 0 1
outer loop
vertex -3.071698050000009 50.07729565 1
vertex 131.11473534999993 -53.955301750000004 1
vertex 131.35774139849636 -53.94544201782983 1
endloop
endfacet
facet normal 0 0 1
outer loop
vertex -3.071698050000009 50.07729565 1
vertex 131.35774139849636 -53.94544201782983 1
vertex 131.59915025514888 -53.915930700442644 1
endloop
endfacet
facet normal 0 0 1
outer loop
vertex -3.071698050000009 50.07729565 1
vertex 131.59915025514888 -53.915930700442644 1
vertex 131.83737070000006 -53.86696349999998 1
endloop
endfacet
facet normal 0 0 1
outer loop
vertex -3.071698050000009 50.07729565 1
vertex 131.83737070000006 -53.86696349999998 1
vertex 187.47637179999987 -40.058143900000026 1
endloop
endfacet
facet normal 0 0 1
outer loop
vertex -3.071698050000009 50.07729565 1
vertex 187.47637179999987 -40.058143900000026 1
vertex 187.67695123945794 -40.00088892849841 1
endloop
endfacet
facet normal 0 0 1
outer loop
vertex -3.071698050000009 50.07729565 1
vertex 187.67695123945794 -40.00088892849841 1
vertex 187.87306727859067 -39.92983442484124 1
endloop
endfacet
facet normal 0 0 1
outer loop
vertex -3.071698050000009 50.07729565 1
vertex 187.87306727859067 -39.92983442484124 1
vertex 188.06377359999988 -39.84532780000005 1
endloop
endfacet
facet normal 0 0 1
outer loop
vertex -3.071698050000009 50.07729565 1
vertex 188.06377359999988 -39.84532780000005 1
vertex 252.04248049999995 -8.789679050000013 1
endloop
endfacet
facet normal 0 0 1
outer loop
vertex -3.071698050000009 50.07729565 1
vertex 252.04248049999995 -8.789679050000013 1
vertex 252.44093042770555 -8.556809077084248 1
endloop
endfacet
facet normal 0 0 1
outer loop
vertex -3.071698050000009 50.07729565 1
vertex 252.44093042770555 -8.556809077084248 1
vertex 252.79894781992095 -8.265580101799085 1
endloop
endfacet
facet normal 0 0 1
outer loop
vertex -3.071698050000009 50.07729565 1
vertex 252.79894781992095 -8.265580101799085 1
vertex 253.10805996556337 -7.922884244527926 1
endloop
endfacet
facet normal 0 0 1
outer loop
vertex -3.071698050000009 50.07729565 1
vertex 253.10805996556337 -7.922884244527926 1
vertex 253.36095152755922 -7.5368316224079015 1
endloop
endfacet
facet normal 0 0 1
outer loop
vertex -3.071698050000009 50.07729565 1
vertex 253.36095152755922 -7.5368316224079015 1
vertex 253.55163766498526 -7.116558418209065 1
endloop
endfacet
facet normal 0 0 1
outer loop
vertex -3.071698050000009 50.07729565 1
vertex 253.55163766498526 -7.116558418209065 1
vertex 253.67560566816627 -6.67201066671111 1
endloop
endfacet
facet normal 0 0 1
outer loop
vertex -3.071698050000009 50.07729565 1
vertex 253.67560566816627 -6.67201066671111 1
vertex 253.72992175484075 -6.213708875417963 1
endloop
endfacet
facet normal 0 0 1
outer loop
vertex -3.071698050000009 50.07729565 1
vertex 253.72992175484075 -6.213708875417963 1
vertex 253.713301 -5.752498099999855 1
endloop
endfacet
facet normal 0 0 1
outer loop
vertex -3.071698050000009 50.07729565 1
vertex 253.713301 -5.752498099999855 1
vertex 247.6786398000001 47.41563454999916 1
endloop
endfacet
facet normal 0 0 1
outer loop
vertex -3.071698050000009 50.07729565 1
vertex 247.6786398000001 47.41563454999916 1
vertex 247.58505906099438 47.8919225356253 1
endloop
endfacet
facet normal 0 0 1
outer loop
vertex -3.071698050000009 50.07729565 1
vertex 247.58505906099438 47.8919225356253 1
vertex 247.41589333027287 48.34688468296698 1
endloop
endfacet
facet normal 0 0 1
outer loop
vertex -3.071698050000009 50.07729565 1
vertex 247.41589333027287 48.34688468296698 1
vertex 247.17557113359257 48.768610709845255 1
endloop
endfacet
facet normal 0 0 1
outer loop
vertex -3.071698050000009 50.07729565 1
vertex 247.17557113359257 48.768610709845255 1
vertex 246.87038377495088 49.14606040992337 1
endloop
endfacet
facet normal 0 0 1
outer loop
vertex -3.071698050000009 50.07729565 1
vertex 246.87038377495088 49.14606040992337 1
vertex 246.50832063891522 49.46935267009683 1
endloop
endfacet
facet normal 0 0 1
outer loop
vertex -3.071698050000009 50.07729565 1
vertex 246.50832063891522 49.46935267009683 1
vertex 246.09886003954315 49.73002414442027 1
endloop
endfacet
facet normal 0 0 1
outer loop
vertex -3.071698050000009 50.07729565 1
vertex 246.09886003954315 49.73002414442027 1
vertex 245.65272109117927 49.921250812844136 1
endloop
endfacet
facet normal 0 0 1
outer loop
vertex -3.071698050000009 50.07729565 1
vertex 245.65272109117927 49.921250812844136 1
vertex 245.18158309680902 50.03802662465798 1
endloop
endfacet
facet normal 0 0 1
outer loop
vertex -3.071698050000009 50.07729565 1
vertex 245.18158309680902 50.03802662465798 1
vertex 244.69777959999982 50.0772991 1
endloop
endfacet
facet normal -0.9993512494543157 0.03601499984864631 0
outer loop
vertex -12.10383835484076 -6.213710675417776 1
vertex -12.08721709999999 -5.752500849999984 1
vertex -12.08721709999999 -5.752500849999954 0
endloop
endfacet
facet normal -0.9993512494543157 0.03601499984864631 0
outer loop
vertex -12.10383835484076 -6.213710675417776 1
vertex -12.08721709999999 -5.752500849999954 0
vertex -12.10383835484076 -6.213710675417779 0
endloop
endfacet
facet normal -0.9930501097658615 -0.11769230855927049 0
outer loop
vertex -12.049522268166257 -6.672012466711131 1
vertex -12.10383835484076 -6.213710675417776 1
vertex -12.10383835484076 -6.213710675417779 0
endloop
endfacet
facet normal -0.9930501097658615 -0.11769230855927049 0
outer loop
vertex -12.049522268166257 -6.672012466711131 1
vertex -12.10383835484076 -6.213710675417779 0
vertex -12.049522268166257 -6.672012466711147 0
endloop
endfacet
facet normal -0.9632478026654363 -0.26861435304206793 0
outer loop
vertex -11.925554264985308 -7.11656021820891 1
vertex -12.049522268166257 -6.672012466711131 1
vertex -12.049522268166257 -6.672012466711147 0
endloop
endfacet
facet normal -0.9632478026654363 -0.26861435304206793 0
outer loop
vertex -11.925554264985308 -7.11656021820891 1
vertex -12.049522268166257 -6.672012466711147 0
vertex -11.925554264985308 -7.116560218208884 0
endloop
endfacet
facet normal -0.9106496188544322 -0.41317946667311223 0
outer loop
vertex -11.734868127559096 -7.536833422408044 1
vertex -11.925554264985308 -7.11656021820891 1
vertex -11.925554264985308 -7.116560218208884 0
endloop
endfacet
facet normal -0.9106496188544322 -0.41317946667311223 0
outer loop
vertex -11.734868127559096 -7.536833422408044 1
vertex -11.925554264985308 -7.116560218208884 0
vertex -11.734868127559096 -7.5368334224080575 0
endloop
endfacet
facet normal -0.8365003280692047 -0.5479664233692727 0
outer loop
vertex -11.481976565563329 -7.922886044528006 1
vertex -11.734868127559096 -7.536833422408044 1
vertex -11.734868127559096 -7.5368334224080575 0
endloop
endfacet
facet normal -0.8365003280692047 -0.5479664233692727 0
outer loop
vertex -11.481976565563329 -7.922886044528006 1
vertex -11.734868127559096 -7.5368334224080575 0
vertex -11.4819765655633 -7.922886044528014 0
endloop
endfacet
facet normal -0.7425547208072782 -0.6697854033993463 0
outer loop
vertex -11.17286441992097 -8.265581901799095 1
vertex -11.481976565563329 -7.922886044528006 1
vertex -11.4819765655633 -7.922886044528014 0
endloop
endfacet
facet normal -0.7425547208072782 -0.6697854033993463 0
outer loop
vertex -11.17286441992097 -8.265581901799095 1
vertex -11.4819765655633 -7.922886044528014 0
vertex -11.17286441992097 -8.265581901799074 0
endloop
endfacet
facet normal -0.6310360800854862 -0.7757534825125467 0
outer loop
vertex -10.814847027705596 -8.556810877084246 1
vertex -11.17286441992097 -8.265581901799095 1
vertex -11.17286441992097 -8.265581901799074 0
endloop
endfacet
facet normal -0.6310360800854862 -0.7757534825125467 0
outer loop
vertex -10.814847027705596 -8.556810877084246 1
vertex -11.17286441992097 -8.265581901799074 0
vertex -10.814847027705568 -8.556810877084253 0
endloop
endfacet
facet normal -0.504582201450436 -0.8633636556975466 0
outer loop
vertex -10.4163942 -8.789681699999996 1
vertex -10.814847027705596 -8.556810877084246 1
vertex -10.814847027705568 -8.556810877084253 0
endloop
endfacet
facet normal -0.504582201450436 -0.8633636556975466 0
outer loop
vertex -10.4163942 -8.789681699999996 1
vertex -10.814847027705568 -8.556810877084253 0
vertex -10.41639419999997 -8.789681700000006 0
endloop
endfacet
facet normal -0.43667950999985167 -0.8996171438708188 0
outer loop
vertex 53.56231219999967 -39.845326149999856 1
vertex -10.4163942 -8.789681699999996 1
vertex -10.41639419999997 -8.789681700000006 0
endloop
endfacet
facet normal -0.43667950999985167 -0.8996171438708188 0
outer loop
vertex 53.56231219999967 -39.845326149999856 1
vertex -10.41639419999997 -8.789681700000006 0
vertex 53.56231220000002 -39.84532615000001 0
endloop
endfacet
facet normal -0.4051492534374861 -0.9142505578007857 0
outer loop
vertex 53.75301672140938 -39.92983667484127 1
vertex 53.56231219999967 -39.845326149999856 1
vertex 53.56231220000002 -39.84532615000001 0
endloop
endfacet
facet normal -0.4051492534374861 -0.9142505578007857 0
outer loop
vertex 53.75301672140938 -39.92983667484127 1
vertex 53.56231220000002 -39.84532615000001 0
vertex 53.75301672140931 -39.92983667484124 0
endloop
endfacet
facet normal -0.34064016480902387 -0.9401937449902978 0
outer loop
vertex 53.94913276054197 -40.00089117849839 1
vertex 53.75301672140938 -39.92983667484127 1
vertex 53.75301672140931 -39.92983667484124 0
endloop
endfacet
facet normal -0.34064016480902387 -0.9401937449902978 0
outer loop
vertex 53.94913276054197 -40.00089117849839 1
vertex 53.75301672140931 -39.92983667484124 0
vertex 53.94913276054207 -40.00089117849843 0
endloop
endfacet
facet normal -0.2744644107097186 -0.9615972583435162 0
outer loop
vertex 54.14971439999998 -40.05814229999999 1
vertex 53.94913276054197 -40.00089117849839 1
vertex 53.94913276054207 -40.00089117849843 0
endloop
endfacet
facet normal -0.2744644107097186 -0.9615972583435162 0
outer loop
vertex 54.14971439999998 -40.05814229999999 1
vertex 53.94913276054207 -40.00089117849843 0
vertex 54.14971439999984 -40.058142299999965 0
endloop
endfacet
facet normal -0.24087819626625506 -0.9705553536834031 0
outer loop
vertex 109.78870930000005 -53.86695875000002 1
vertex 54.14971439999998 -40.05814229999999 1
vertex 54.14971439999984 -40.058142299999965 0
endloop
endfacet
facet normal -0.24087819626625506 -0.9705553536834031 0
outer loop
vertex 109.78870930000005 -53.86695875000002 1
vertex 54.14971439999984 -40.058142299999965 0
vertex 109.78870929999995 -53.866958749999995 0
endloop
endfacet
facet normal -0.20134763250183604 -0.9795198471117906 0
outer loop
vertex 110.026934394851 -53.91592770044262 1
vertex 109.78870930000005 -53.86695875000002 1
vertex 109.78870929999995 -53.866958749999995 0
endloop
endfacet
facet normal -0.20134763250183604 -0.9795198471117906 0
outer loop
vertex 110.026934394851 -53.91592770044262 1
vertex 109.78870929999995 -53.866958749999995 0
vertex 110.02693439485111 -53.91592770044264 0
endloop
endfacet
facet normal -0.12134288838567636 -0.9926106504759162 0
outer loop
vertex 110.26834325150384 -53.945439017829855 1
vertex 110.026934394851 -53.91592770044262 1
vertex 110.02693439485111 -53.91592770044264 0
endloop
endfacet
facet normal -0.12134288838567636 -0.9926106504759162 0
outer loop
vertex 110.26834325150384 -53.945439017829855 1
vertex 110.02693439485111 -53.91592770044264 0
vertex 110.26834325150377 -53.94543901782985 0
endloop
endfacet
facet normal -0.040535648593497335 -0.9991780928308549 0
outer loop
vertex 110.51134859999992 -53.95529750000001 1
vertex 110.26834325150384 -53.945439017829855 1
vertex 110.26834325150377 -53.94543901782985 0
endloop
endfacet
facet normal -0.040535648593497335 -0.9991780928308549 0
outer loop
vertex 110.51134859999992 -53.95529750000001 1
vertex 110.26834325150377 -53.94543901782985 0
vertex 110.5113486 -53.95529750000001 0
endloop
endfacet
facet normal -2.062767663346676e-7 -0.9999999999999787 0
outer loop
vertex 131.11473534999993 -53.955301750000004 1
vertex 110.51134859999992 -53.95529750000001 1
vertex 110.5113486 -53.95529750000001 0
endloop
endfacet
facet normal -2.062767663346676e-7 -0.9999999999999787 0
outer loop
vertex 131.11473534999993 -53.955301750000004 1
vertex 110.5113486 -53.95529750000001 0
vertex 131.11473534999982 -53.955301750000004 0
endloop
endfacet
facet normal 0.040540663249267084 -0.999177889378718 0
outer loop
vertex 131.35774139849636 -53.94544201782983 1
vertex 131.11473534999993 -53.955301750000004 1
vertex 131.11473534999982 -53.955301750000004 0
endloop
endfacet
facet normal 0.040540663249267084 -0.999177889378718 0
outer loop
vertex 131.35774139849636 -53.94544201782983 1
vertex 131.11473534999982 -53.955301750000004 0
vertex 131.35774139849647 -53.945442017829826 0
endloop
endfacet
facet normal 0.12134288838566926 -0.9926106504759171 0
outer loop
vertex 131.59915025514888 -53.915930700442644 1
vertex 131.35774139849636 -53.94544201782983 1
vertex 131.35774139849647 -53.945442017829826 0
endloop
endfacet
facet normal 0.12134288838566926 -0.9926106504759171 0
outer loop
vertex 131.59915025514888 -53.915930700442644 1
vertex 131.35774139849647 -53.945442017829826 0
vertex 131.59915025514866 -53.91593070044268 0
endloop
endfacet
facet normal 0.20134449944791297 -0.979520491129241 0
outer loop
vertex 131.83737070000006 -53.86696349999998 1
vertex 131.59915025514888 -53.915930700442644 1
vertex 131.59915025514866 -53.91593070044268 0
endloop
endfacet
facet normal 0.20134449944791297 -0.979520491129241 0
outer loop
vertex 131.83737070000006 -53.86696349999998 1
vertex 131.59915025514866 -53.91593070044268 0
vertex 131.83737070000043 -53.8669634999999 0
endloop
endfacet
facet normal 0.24087822274172782 -0.9705553471125625 0
outer loop
vertex 187.47637179999987 -40.058143900000026 1
vertex 131.83737070000006 -53.86696349999998 1
vertex 131.83737070000043 -53.8669634999999 0
endloop
endfacet
facet normal 0.24087822274172782 -0.9705553471125625 0
outer loop
vertex 187.47637179999987 -40.058143900000026 1
vertex 131.83737070000043 -53.8669634999999 0
vertex 187.4763718 -40.0581439 0
endloop
endfacet
facet normal 0.2744842610198368 -0.9615915923365772 0
outer loop
vertex 187.67695123945794 -40.00088892849841 1
vertex 187.47637179999987 -40.058143900000026 1
vertex 187.4763718 -40.0581439 0
endloop
endfacet
facet normal 0.2744842610198368 -0.9615915923365772 0
outer loop
vertex 187.67695123945794 -40.00088892849841 1
vertex 187.4763718 -40.0581439 0
vertex 187.67695123945794 -40.000888928498426 0
endloop
endfacet
facet normal 0.3406401648090455 -0.94019374499029 0
outer loop
vertex 187.87306727859067 -39.92983442484124 1
vertex 187.67695123945794 -40.00088892849841 1
vertex 187.67695123945794 -40.000888928498426 0
endloop
endfacet
facet normal 0.3406401648090455 -0.94019374499029 0
outer loop
vertex 187.87306727859067 -39.92983442484124 1
vertex 187.67695123945794 -40.000888928498426 0
vertex 187.8730672785905 -39.9298344248413 0
endloop
endfacet
facet normal 0.40513042913458713 -0.9142588995406198 0
outer loop
vertex 188.06377359999988 -39.84532780000005 1
vertex 187.87306727859067 -39.92983442484124 1
vertex 187.8730672785905 -39.9298344248413 0
endloop
endfacet
facet normal 0.40513042913458713 -0.9142588995406198 0
outer loop
vertex 188.06377359999988 -39.84532780000005 1
vertex 187.8730672785905 -39.9298344248413 0
vertex 188.0637735999999 -39.84532780000003 0
endloop
endfacet
facet normal 0.43667955617141274 -0.8996171214588671 0
outer loop
vertex 252.04248049999995 -8.789679050000013 1
vertex 188.06377359999988 -39.84532780000005 1
vertex 188.0637735999999 -39.84532780000003 0
endloop
endfacet
facet normal 0.43667955617141274 -0.8996171214588671 0
outer loop
vertex 252.04248049999995 -8.789679050000013 1
vertex 188.0637735999999 -39.84532780000003 0
vertex 252.04248049999973 -8.789679050000117 0
endloop
endfacet
facet normal 0.504583566022117 -0.8633628581890722 0
outer loop
vertex 252.44093042770555 -8.556809077084248 1
vertex 252.04248049999995 -8.789679050000013 1
vertex 252.04248049999973 -8.789679050000117 0
endloop
endfacet
facet normal 0.504583566022117 -0.8633628581890722 0
outer loop
vertex 252.44093042770555 -8.556809077084248 1
vertex 252.04248049999973 -8.789679050000117 0
vertex 252.4409304277056 -8.556809077084225 0
endloop
endfacet
facet normal 0.631036080085493 -0.7757534825125411 0
outer loop
vertex 252.79894781992095 -8.265580101799085 1
vertex 252.44093042770555 -8.556809077084248 1
vertex 252.4409304277056 -8.556809077084225 0
endloop
endfacet
facet normal 0.631036080085493 -0.7757534825125411 0
outer loop
vertex 252.79894781992095 -8.265580101799085 1
vertex 252.4409304277056 -8.556809077084225 0
vertex 252.79894781992107 -8.265580101798998 0
endloop
endfacet
facet normal 0.7425547208072784 -0.6697854033993462 0
outer loop
vertex 253.10805996556337 -7.922884244527926 1
vertex 252.79894781992095 -8.265580101799085 1
vertex 252.79894781992107 -8.265580101798998 0
endloop
endfacet
facet normal 0.7425547208072784 -0.6697854033993462 0
outer loop
vertex 253.10805996556337 -7.922884244527926 1
vertex 252.79894781992107 -8.265580101798998 0
vertex 253.1080599655633 -7.922884244527999 0
endloop
endfacet
facet normal 0.8365003280691828 -0.547966423369306 0
outer loop
vertex 253.36095152755922 -7.5368316224079015 1
vertex 253.10805996556337 -7.922884244527926 1
vertex 253.1080599655633 -7.922884244527999 0
endloop
endfacet
facet normal 0.8365003280691828 -0.547966423369306 0
outer loop
vertex 253.36095152755922 -7.5368316224079015 1
vertex 253.1080599655633 -7.922884244527999 0
vertex 253.36095152755905 -7.5368316224081235 0
endloop
endfacet
facet normal 0.9106496188544559 -0.4131794666730598 0
outer loop
vertex 253.55163766498526 -7.116558418209065 1
vertex 253.36095152755922 -7.5368316224079015 1
vertex 253.36095152755905 -7.5368316224081235 0
endloop
endfacet
facet normal 0.9106496188544559 -0.4131794666730598 0
outer loop
vertex 253.55163766498526 -7.116558418209065 1
vertex 253.36095152755905 -7.5368316224081235 0
vertex 253.55163766498526 -7.116558418208933 0
endloop
endfacet
facet normal 0.9632478026654604 -0.2686143530419817 0
outer loop
vertex 253.67560566816627 -6.67201066671111 1
vertex 253.55163766498526 -7.116558418209065 1
vertex 253.55163766498526 -7.116558418208933 0
endloop
endfacet
facet normal 0.9632478026654604 -0.2686143530419817 0
outer loop
vertex 253.67560566816627 -6.67201066671111 1
vertex 253.55163766498526 -7.116558418208933 0
vertex 253.6756056681662 -6.672010666711073 0
endloop
endfacet
facet normal 0.9930501097658648 -0.11769230855924215 0
outer loop
vertex 253.72992175484075 -6.213708875417963 1
vertex 253.67560566816627 -6.67201066671111 1
vertex 253.6756056681662 -6.672010666711073 0
endloop
endfacet
facet normal 0.9930501097658648 -0.11769230855924215 0
outer loop
vertex 253.72992175484075 -6.213708875417963 1
vertex 253.6756056681662 -6.672010666711073 0
vertex 253.72992175484075 -6.213708875417727 0
endloop
endfacet
facet normal 0.999351291116965 0.0360138437667388 0
outer loop
vertex 253.713301 -5.752498099999855 1
vertex 253.72992175484075 -6.213708875417963 1
vertex 253.72992175484075 -6.213708875417727 0
endloop
endfacet
facet normal 0.999351291116965 0.0360138437667388 0
outer loop
vertex 253.713301 -5.752498099999855 1
vertex 253.72992175484075 -6.213708875417727 0
vertex 253.713301 -5.752498100000126 0
endloop
endfacet
facet normal 0.9936202828600943 0.11277736248479206 0
outer loop
vertex 247.6786398000001 47.41563454999916 1
vertex 253.713301 -5.752498099999855 1
vertex 253.713301 -5.752498100000126 0
endloop
endfacet
facet normal 0.9936202828600943 0.11277736248479206 0
outer loop
vertex 247.6786398000001 47.41563454999916 1
vertex 253.713301 -5.752498100000126 0
vertex 247.6786398 47.4156345499996 0
endloop
endfacet
facet normal 0.9812394014913823 0.1927932492615702 0
outer loop
vertex 247.58505906099438 47.8919225356253 1
vertex 247.6786398000001 47.41563454999916 1
vertex 247.6786398 47.4156345499996 0
endloop
endfacet
facet normal 0.9812394014913823 0.1927932492615702 0
outer loop
vertex 247.58505906099438 47.8919225356253 1
vertex 247.6786398 47.4156345499996 0
vertex 247.58505906099435 47.89192253562551 0
endloop
endfacet
facet normal 0.9373043172026341 0.34851200403042626 0
outer loop
vertex 247.41589333027287 48.34688468296698 1
vertex 247.58505906099438 47.8919225356253 1
vertex 247.58505906099435 47.89192253562551 0
endloop
endfacet
facet normal 0.9373043172026341 0.34851200403042626 0
outer loop
vertex 247.41589333027287 48.34688468296698 1
vertex 247.58505906099435 47.89192253562551 0
vertex 247.415893330273 48.346884682966675 0
endloop
endfacet
facet normal 0.8688318972903598 0.4951071947072005 0
outer loop
vertex 247.17557113359257 48.768610709845255 1
vertex 247.41589333027287 48.34688468296698 1
vertex 247.415893330273 48.346884682966675 0
endloop
endfacet
facet normal 0.8688318972903598 0.4951071947072005 0
outer loop
vertex 247.17557113359257 48.768610709845255 1
vertex 247.415893330273 48.346884682966675 0
vertex 247.17557113359254 48.76861070984524 0
endloop
endfacet
facet normal 0.7776146553677592 0.6287411611762674 0
outer loop
vertex 246.87038377495088 49.14606040992337 1
vertex 247.17557113359257 48.768610709845255 1
vertex 247.17557113359254 48.76861070984524 0
endloop
endfacet
facet normal 0.7776146553677592 0.6287411611762674 0
outer loop
vertex 246.87038377495088 49.14606040992337 1
vertex 247.17557113359254 48.76861070984524 0
vertex 246.87038377495077 49.14606040992347 0
endloop
endfacet
facet normal 0.6660405331509791 0.7459155503138136 0
outer loop
vertex 246.50832063891522 49.46935267009683 1
vertex 246.87038377495088 49.14606040992337 1
vertex 246.87038377495077 49.14606040992347 0
endloop
endfacet
facet normal 0.6660405331509791 0.7459155503138136 0
outer loop
vertex 246.50832063891522 49.46935267009683 1
vertex 246.87038377495077 49.14606040992347 0
vertex 246.50832063891528 49.46935267009678 0
endloop
endfacet
facet normal 0.5370303874347521 0.8435628980530617 0
outer loop
vertex 246.09886003954315 49.73002414442027 1
vertex 246.50832063891522 49.46935267009683 1
vertex 246.50832063891528 49.46935267009678 0
endloop
endfacet
facet normal 0.5370303874347521 0.8435628980530617 0
outer loop
vertex 246.09886003954315 49.73002414442027 1
vertex 246.50832063891528 49.46935267009678 0
vertex 246.09886003954318 49.73002414442025 0
endloop
endfacet
facet normal 0.39396152608622936 0.9191269313668321 0
outer loop
vertex 245.65272109117927 49.921250812844136 1
vertex 246.09886003954315 49.73002414442027 1
vertex 246.09886003954318 49.73002414442025 0
endloop
endfacet
facet normal 0.39396152608622936 0.9191269313668321 0
outer loop
vertex 245.65272109117927 49.921250812844136 1
vertex 246.09886003954318 49.73002414442025 0
vertex 245.6527210911792 49.92125081284417 0
endloop
endfacet
facet normal 0.24057929477774542 0.9706294879737802 0
outer loop
vertex 245.18158309680902 50.03802662465798 1
vertex 245.65272109117927 49.921250812844136 1
vertex 245.6527210911792 49.92125081284417 0
endloop
endfacet
facet normal 0.24057929477774542 0.9706294879737802 0
outer loop
vertex 245.18158309680902 50.03802662465798 1
vertex 245.6527210911792 49.92125081284417 0
vertex 245.18158309680905 50.03802662465799 0
endloop
endfacet
facet normal 0.08090830823392992 0.9967215487079244 0
outer loop
vertex 244.69777959999982 50.0772991 1
vertex 245.18158309680902 50.03802662465798 1
vertex 245.18158309680905 50.03802662465799 0
endloop
endfacet
facet normal 0.08090830823392992 0.9967215487079244 0
outer loop
vertex 244.69777959999982 50.0772991 1
vertex 245.18158309680905 50.03802662465799 0
vertex 244.69777959999996 50.0772991 0
endloop
endfacet
facet normal -1.3924235986451095e-8 1 0
outer loop
vertex -3.071698050000009 50.07729565 1
vertex 244.69777959999982 50.0772991 1
vertex 244.69777959999996 50.0772991 0
endloop
endfacet
facet normal -1.3924235986451095e-8 1 0
outer loop
vertex -3.071698050000009 50.07729565 1
vertex 244.69777959999996 50.0772991 0
vertex -3.071698049999952 50.07729565 0
endloop
endfacet
facet normal -0.08089902899776291 0.9967223019011962 0
outer loop
vertex -3.5555013468089527 50.03802772465801 1
vertex -3.071698050000009 50.07729565 1
vertex -3.071698049999952 50.07729565 0
endloop
endfacet
facet normal -0.08089902899776291 0.9967223019011962 0
outer loop
vertex -3.5555013468089527 50.03802772465801 1
vertex -3.071698049999952 50.07729565 0
vertex -3.555501346809038 50.038027724657994 0
endloop
endfacet
facet normal -0.24057929477774542 0.9706294879737802 0
outer loop
vertex -4.026639341179234 49.921251912844156 1
vertex -3.5555013468089527 50.03802772465801 1
vertex -3.555501346809038 50.038027724657994 0
endloop
endfacet
facet normal -0.24057929477774542 0.9706294879737802 0
outer loop
vertex -4.026639341179234 49.921251912844156 1
vertex -3.555501346809038 50.038027724657994 0
vertex -4.026639341179234 49.92125191284416 0
endloop
endfacet
facet normal -0.3939615260862161 0.9191269313668378 0
outer loop
vertex -4.472778289543356 49.73002524442018 1
vertex -4.026639341179234 49.921251912844156 1
vertex -4.026639341179234 49.92125191284416 0
endloop
endfacet
facet normal -0.3939615260862161 0.9191269313668378 0
outer loop
vertex -4.472778289543356 49.73002524442018 1
vertex -4.026639341179234 49.92125191284416 0
vertex -4.472778289543314 49.73002524442021 0
endloop
endfacet
facet normal -0.5370303874347686 0.8435628980530513 0
outer loop
vertex -4.882238888915225 49.46935377009686 1
vertex -4.472778289543356 49.73002524442018 1
vertex -4.472778289543314 49.73002524442021 0
endloop
endfacet
facet normal -0.5370303874347686 0.8435628980530513 0
outer loop
vertex -4.882238888915225 49.46935377009686 1
vertex -4.472778289543314 49.73002524442021 0
vertex -4.8822388889152535 49.469353770096845 0
endloop
endfacet
facet normal -0.6660405331509492 0.7459155503138404 0
outer loop
vertex -5.2443020249508265 49.146061509923456 1
vertex -4.882238888915225 49.46935377009686 1
vertex -4.8822388889152535 49.469353770096845 0
endloop
endfacet
facet normal -0.6660405331509492 0.7459155503138404 0
outer loop
vertex -5.2443020249508265 49.146061509923456 1
vertex -4.8822388889152535 49.469353770096845 0
vertex -5.2443020249508265 49.14606150992345 0
endloop
endfacet
facet normal -0.777614655367759 0.6287411611762679 0
outer loop
vertex -5.549489383592629 48.76861180984518 1
vertex -5.2443020249508265 49.146061509923456 1
vertex -5.2443020249508265 49.14606150992345 0
endloop
endfacet
facet normal -0.777614655367759 0.6287411611762679 0
outer loop
vertex -5.549489383592629 48.76861180984518 1
vertex -5.2443020249508265 49.14606150992345 0
vertex -5.549489383592629 48.76861180984519 0
endloop
endfacet
facet normal -0.8688318972903604 0.4951071947071993 0
outer loop
vertex -5.78981158027301 48.346885782966744 1
vertex -5.549489383592629 48.76861180984518 1
vertex -5.549489383592629 48.76861180984519 0
endloop
endfacet
facet normal -0.8688318972903604 0.4951071947071993 0
outer loop
vertex -5.78981158027301 48.346885782966744 1
vertex -5.549489383592629 48.76861180984519 0
vertex -5.789811580272996 48.34688578296677 0
endloop
endfacet
facet normal -0.9373043172026451 0.34851200403039695 0
outer loop
vertex -5.958977310994399 47.891923635625425 1
vertex -5.78981158027301 48.346885782966744 1
vertex -5.789811580272996 48.34688578296677 0
endloop
endfacet
facet normal -0.9373043172026451 0.34851200403039695 0
outer loop
vertex -5.958977310994399 47.891923635625425 1
vertex -5.789811580272996 48.34688578296677 0
vertex -5.958977310994413 47.89192363562541 0
endloop
endfacet
facet normal -0.9812404945576767 0.1927876859143396 0
outer loop
vertex -6.052556100000004 47.41563129999996 1
vertex -5.958977310994399 47.891923635625425 1
vertex -5.958977310994413 47.89192363562541 0
endloop
endfacet
facet normal -0.9812404945576767 0.1927876859143396 0
outer loop
vertex -6.052556100000004 47.41563129999996 1
vertex -5.958977310994413 47.89192363562541 0
vertex -6.052556100000004 47.415631299999994 0
endloop
endfacet
facet normal -0.9936202831600842 0.11277735984174342 0
outer loop
vertex -12.08721709999999 -5.752500849999984 1
vertex -6.052556100000004 47.41563129999996 1
vertex -6.052556100000004 47.415631299999994 0
endloop
endfacet
facet normal -0.9936202831600842 0.11277735984174342 0
outer loop
vertex -12.08721709999999 -5.752500849999984 1
vertex -6.052556100000004 47.415631299999994 0
vertex -12.08721709999999 -5.752500849999954 0
endloop
endfacet
endsolid csg.js
